US Births 2000-2014
…
births <- births %>% 
  mutate(year = as_factor(year)) %>% 
  mutate(month = as_factor(month)) %>% 
  mutate(date_of_month = as_factor(date_of_month)) %>% 
  mutate(day_of_week = as_factor(day_of_week))  

levels(births$month) <- c("January", "February", "March", "April", "May", "June", "July", "August", "September", "October", "November", "December")
levels(births$day_of_week) <- c("Monday", "Tuesday", "Wednesday", "Thursday", "Friday", "Saturday", "Sunday")

births

# A tibble: 5,479 x 5
   year  month   date_of_month day_of_week births
   <fct> <fct>   <fct>         <fct>        <dbl>
 1 2000  January 1             Saturday      9083
 2 2000  January 2             Sunday        8006
 3 2000  January 3             Monday       11363
 4 2000  January 4             Tuesday      13032
 5 2000  January 5             Wednesday    12558
 6 2000  January 6             Thursday     12466
 7 2000  January 7             Friday       12516
 8 2000  January 8             Saturday      8934
 9 2000  January 9             Sunday        7949
10 2000  January 10            Monday       11668
# ... with 5,469 more rows
…
